Visual-Analytics-Fly-Like-a-G6 - Take-home Ex3
…
From the output above, there are only 6 rows that are affected. Further cross-validation with the data description document found that there should only be 12 unique values for this variable, and including this outlier state value will give 13. Hence this is likely a wrong entry, and so it will be excluded from the analysis in the following code chunk.

df_StudentRecord <- df_StudentRecord %>%
  filter (state != '�������')

For timeconsume, the rows with unexpected value(s) are queried in the following code chunk to better understand the number of affected rows.

Outlier_timeconsume <- df_StudentRecord %>%
  filter (timeconsume %in% c('-', '--'))
Outlier_timeconsume

# A tibble: 2,612 × 10
   index class    time state score title_ID method memory timeconsume student_ID
   <dbl> <chr>   <dbl> <chr> <dbl> <chr>    <chr>   <dbl> <chr>       <chr>     
 1   191 Class1 1.70e9 Erro…     0 Questio… Metho…      0 --          9417c1b4c…
 2   321 Class1 1.70e9 Erro…     0 Questio… Metho…      0 --          8b1fbc973…
 3   322 Class1 1.70e9 Erro…     0 Questio… Metho…      0 --          8b1fbc973…
 4   366 Class1 1.70e9 Erro…     0 Questio… Metho…      0 --          9ea29e4a7…
 5   396 Class1 1.70e9 Erro…     0 Questio… Metho…      0 --          9ea29e4a7…
 6   397 Class1 1.70e9 Erro…     0 Questio… Metho…      0 --          9ea29e4a7…
 7   422 Class1 1.70e9 Erro…     0 Questio… Metho…      0 --          f06c3ddb1…
 8   423 Class1 1.70e9 Erro…     0 Questio… Metho…      0 --          f06c3ddb1…
 9   424 Class1 1.70e9 Erro…     0 Questio… Metho…      0 --          f06c3ddb1…
10   425 Class1 1.70e9 Erro…     0 Questio… Metho…      0 --          f06c3ddb1…
# ℹ 2,602 more rows
…
