Visual-Analytics-Fly-Like-a-G6 - ChinaVis
…
`summarise()` has grouped output by 'student_ID'. You can override using the
`.groups` argument.

# Step 3: Replace wrong class values
df_StudentRecord <- df_StudentRecord %>%
  left_join(correct_classes, by = "student_ID") %>%
  mutate(class = ifelse(!is.na(correct_class), correct_class, class)) %>%
  select(-correct_class)

# Display the updated dataframe
print(df_StudentRecord)

# A tibble: 232,818 × 10
   index class    time state score title_ID method memory timeconsume student_ID
   <dbl> <chr>   <dbl> <chr> <dbl> <chr>    <chr>   <dbl> <chr>       <chr>     
 1     0 Class1 1.70e9 Abso…     3 Questio… Metho…    320 3           8b6d11257…
 2     1 Class1 1.70e9 Abso…     3 Questio… Metho…    356 3           8b6d11257…
 3     2 Class1 1.70e9 Abso…     3 Questio… Metho…    196 2           8b6d11257…
 4     3 Class1 1.70e9 Abso…     3 Questio… Metho…    308 2           63eef3731…
 5     4 Class1 1.70e9 Abso…     4 Questio… Metho…    320 3           5d89810b2…
 6     5 Class1 1.70e9 Erro…     0 Questio… Metho…      0 5           5d89810b2…
 7     6 Class1 1.70e9 Abso…     3 Questio… Metho…    308 2           5d89810b2…
 8     7 Class1 1.70e9 Abso…     3 Questio… Metho…    312 2           47eeab842…
 9     8 Class1 1.70e9 Abso…     3 Questio… Metho…    312 3           47eeab842…
10     9 Class1 1.70e9 Abso…     3 Questio… Metho…    328 2           5d89810b2…
# ℹ 232,808 more rows

# Identify students with multiple classes
students_multiple_classes <- df_StudentRecord %>%
  group_by(student_ID) %>%
  summarise(unique_classes = n_distinct(title_ID)) %>%
  filter(unique_classes > 1)

# Display the results
print(students_multiple_classes)

# A tibble: 1,362 × 2
   student_ID           unique_classes
   <chr>                         <int>
 1 0088dc183f73c83f763e             38
 2 00cbf05221bb479e66c3             38
 3 00df647ee4bf7173642f             38
 4 0107f72b66cbd1a0926d             38
 5 011d454f199c123d44ad             38
 6 01558eef77a8d39b7103             38
 7 016226278e6a69e10aa4             38
 8 01a691413dc5897db83f             38
 9 01d8aa21ef476b66c573             38
10 01qkq6w2v62cimidb3b7             35
# ℹ 1,352 more rows
…
