Visual-Analytics-Fly-Like-a-G6 - Take-home Exercise 3
…
From the output above, there are only 6 rows that are affected. Further cross-validation with the data description document found that there should only be 12 unique values for this variable, and including this outlier state value will give 13. Hence this is likely a wrong entry, and so it will be excluded from the analysis in the following code chunk.

df_StudentRecord <- df_StudentRecord %>%
  filter (state != '�������')

For timeconsume, the rows with unexpected value(s) are queried in the following code chunk to better understand the number of affected rows.

Outlier_timeconsume <- df_StudentRecord %>%
  filter (timeconsume %in% c('-', '--'))
Outlier_timeconsume

# A tibble: 2,612 × 10
   index class    time state score title_ID method memory timeconsume student_ID
   <dbl> <chr>   <dbl> <chr> <dbl> <chr>    <chr>   <dbl> <chr>       <chr>     
 1   191 Class1 1.70e9 Erro…     0 Questio… Metho…      0 --          9417c1b4c…
 2   321 Class1 1.70e9 Erro…     0 Questio… Metho…      0 --          8b1fbc973…
 3   322 Class1 1.70e9 Erro…     0 Questio… Metho…      0 --          8b1fbc973…
 4   366 Class1 1.70e9 Erro…     0 Questio… Metho…      0 --          9ea29e4a7…
 5   396 Class1 1.70e9 Erro…     0 Questio… Metho…      0 --          9ea29e4a7…
 6   397 Class1 1.70e9 Erro…     0 Questio… Metho…      0 --          9ea29e4a7…
 7   422 Class1 1.70e9 Erro…     0 Questio… Metho…      0 --          f06c3ddb1…
 8   423 Class1 1.70e9 Erro…     0 Questio… Metho…      0 --          f06c3ddb1…
 9   424 Class1 1.70e9 Erro…     0 Questio… Metho…      0 --          f06c3ddb1…
10   425 Class1 1.70e9 Erro…     0 Questio… Metho…      0 --          f06c3ddb1…
# ℹ 2,602 more rows
…
# Calculate overall mastery by dividing the total score by the total number of knowledge groups
overall_mastery <- total_scores %>%
  mutate(overall_mastery = total_score / total_knowledge_groups) %>%
  filter (total_score > 1)  %>%
  left_join(df_StudentInfo %>% select(student_ID, sex, age, major), by = "student_ID") %>%
  mutate(age = as.character(age))

# View the overall mastery for each student
print(overall_mastery)

# A tibble: 1,362 × 7
   student_ID           class   total_score overall_mastery sex    age   major 
   <chr>                <chr>         <dbl>           <dbl> <chr>  <chr> <chr> 
 1 0088dc183f73c83f763e Class2         46.4            5.80 female 20    J40192
 2 00cbf05221bb479e66c3 Class10        42.3            5.29 female 19    J23517
 3 00df647ee4bf7173642f Class14        40.9            5.11 male   23    J57489
 4 0107f72b66cbd1a0926d Class5         49.6            6.20 female 20    J87654
 5 011d454f199c123d44ad Class3         37.9            4.74 male   22    J78901
 6 01558eef77a8d39b7103 Class15        43.8            5.48 female 18    J57489
 7 016226278e6a69e10aa4 Class4         38.3            4.79 female 22    J78901
 8 01a691413dc5897db83f Class13        36.5            4.57 male   18    J57489
 9 01d8aa21ef476b66c573 Class1         48.7            6.09 male   18    J87654
10 01qkq6w2v62cimidb3b7 Class6         31.9            3.99 female 19    J57489
# ℹ 1,352 more rows
…
6.2 Performance by questions

6.2.1 Static heatmap for average max actual score per question (normalised and non normalised)

Click to show code

library(dplyr)
library(ggplot2)
library(plotly)

# Check the column names in knowledge_expanded
print(knowledge_expanded)

# A tibble: 274,490 × 16
   title_ID student_ID class   time state actual_score method memory timeconsume
   <chr>    <chr>      <chr>  <dbl> <chr>        <dbl> <chr>   <dbl>       <dbl>
 1 Questio… d554e419f… Clas… 1.70e9 Part…            1 Metho…    196           2
 2 Questio… b92448e12… Clas… 1.70e9 Part…            1 Metho…    332           6
 3 Questio… 6b22922bf… Clas… 1.70e9 Erro…            0 Metho…      0           2
 4 Questio… 72d383f55… Clas… 1.70e9 Part…            1 Metho…    196           3
 5 Questio… 3c89c7f1d… Clas… 1.70e9 Erro…            0 Metho…      0           4
 6 Questio… f26c1d520… Clas… 1.70e9 Erro…            0 Metho…      0           3
 7 Questio… 95i3ttsko… Clas… 1.70e9 Part…            1 Metho…    336           4
 8 Questio… c00c91256… Clas… 1.70e9 Abso…            0 Metho…    320           4
 9 Questio… 4xh67ezjc… Clas… 1.70e9 Abso…            2 Metho…    324           2
10 Questio… b92448e12… Clas… 1.70e9 Part…            1 Metho…    204           2
# ℹ 274,480 more rows
# ℹ 7 more variables: time_change <dttm>, sex <chr>, age <dbl>, major <chr>,
#   question_score <dbl>, knowledge <fct>, sub_knowledge <chr>
…
In the Knowledge Area g7R2j, students perform consistently well on Question_5fgqjSBwTPG7KUV3it6O, achieving the highest average score of 0.96. This is the same score as seen in Question_Az73sM0rHfWVKuc4X2kL from the Knowledge Area y9W5d, indicating a strong understanding of the concepts in both g7R2j and y9W5d. Following closely is the Knowledge Area t5V9e, where students score an average highest score of 0.95 on Question_3MwAFlmNO8EKrpY5zjUd.

However, in the Knowledge Area g7R2j, Question_xqlJkmRaP0otZcX4fK3W stands out with the lowest average highest score of 0.85, suggesting that this particular question poses more challenges for students. Meanwhile, all questions in the Knowledge Area r8S3g show a relatively low average highest score, around 0.9, indicating a consistent level of difficulty across this area.

Overall, Knowledge Area g7R2j exhibits the most diverse range of scores, highlighting variability in student performance that could be due to a mix of easier and more challenging questions.

Click to show code

library(dplyr)
library(ggplot2)
library(plotly)

print(knowledge_expanded)

# A tibble: 274,490 × 16
   title_ID student_ID class   time state actual_score method memory timeconsume
   <chr>    <chr>      <chr>  <dbl> <chr>        <dbl> <chr>   <dbl>       <dbl>
 1 Questio… d554e419f… Clas… 1.70e9 Part…            1 Metho…    196           2
 2 Questio… b92448e12… Clas… 1.70e9 Part…            1 Metho…    332           6
 3 Questio… 6b22922bf… Clas… 1.70e9 Erro…            0 Metho…      0           2
 4 Questio… 72d383f55… Clas… 1.70e9 Part…            1 Metho…    196           3
 5 Questio… 3c89c7f1d… Clas… 1.70e9 Erro…            0 Metho…      0           4
 6 Questio… f26c1d520… Clas… 1.70e9 Erro…            0 Metho…      0           3
 7 Questio… 95i3ttsko… Clas… 1.70e9 Part…            1 Metho…    336           4
 8 Questio… c00c91256… Clas… 1.70e9 Abso…            0 Metho…    320           4
 9 Questio… 4xh67ezjc… Clas… 1.70e9 Abso…            2 Metho…    324           2
10 Questio… b92448e12… Clas… 1.70e9 Part…            1 Metho…    204           2
# ℹ 274,480 more rows
# ℹ 7 more variables: time_change <dttm>, sex <chr>, age <dbl>, major <chr>,
#   question_score <dbl>, knowledge <fct>, sub_knowledge <chr>
…
Although many scores are displayed in shades of green, indicating a similar range of scores, the color intensity variations provide insights into the relative difficulty and performance across different questions.

6.2.2 Static heatmap for Average of methods used per question

Click to show code

library(dplyr)
library(ggplot2)
library(plotly)

# Check the column names in mastery_scores
print(mastery_scores)

# A tibble: 58,510 × 10
# Groups:   student_ID, title_ID, knowledge, class [57,151]
   student_ID title_ID knowledge class sub_knowledge total_points total_attempts
   <chr>      <chr>    <chr>     <chr> <chr>                <dbl>          <int>
 1 0088dc183… Questio… t5V9e     Clas… t5V9e_e1k6ci…         1                23
 2 0088dc183… Questio… t5V9e     Clas… t5V9e_e1k6ci…         1                 9
 3 0088dc183… Questio… m3D1v     Clas… m3D1v_r1d7fr…         4.67              7
 4 0088dc183… Questio… g7R2j     Clas… g7R2j_e0v1yl…         7.67             22
 5 0088dc183… Questio… y9W5d     Clas… y9W5d_c0w4mj…         1                 1
 6 0088dc183… Questio… m3D1v     Clas… m3D1v_r1d7fr…         1                 1
 7 0088dc183… Questio… m3D1v     Clas… m3D1v_v3d9is…         1                 2
 8 0088dc183… Questio… y9W5d     Clas… y9W5d_p8g6dg…         1.67              4
 9 0088dc183… Questio… r8S3g     Clas… r8S3g_n0m9rs…         2                 8
10 0088dc183… Questio… y9W5d     Clas… y9W5d_e2j7p9…         3.67             11
# ℹ 58,500 more rows
# ℹ 3 more variables: unique_methods <int>, absolutely_correct_methods <int>,
#   adjusted_points <dbl>
…
Click to show code

# Load the necessary library
library(dplyr)

# Group by 'title_ID', 'student_ID', and 'knowledge' and find the max 'actual_score' for each group
max_scores <- adjusted_scores %>%
  group_by(title_ID, student_ID, knowledge) %>%
  summarize(max_actual_score = max(actual_score, na.rm = TRUE))

# Display the result
print(max_scores)

# A tibble: 57,151 × 4
# Groups:   title_ID, student_ID [50,482]
   title_ID                      student_ID           knowledge max_actual_score
   <chr>                         <chr>                <chr>                <dbl>
 1 Question_3MwAFlmNO8EKrpY5zjUd 0088dc183f73c83f763e t5V9e                    2
 2 Question_3MwAFlmNO8EKrpY5zjUd 00cbf05221bb479e66c3 t5V9e                    2
 3 Question_3MwAFlmNO8EKrpY5zjUd 00df647ee4bf7173642f t5V9e                    2
 4 Question_3MwAFlmNO8EKrpY5zjUd 0107f72b66cbd1a0926d t5V9e                    2
 5 Question_3MwAFlmNO8EKrpY5zjUd 011d454f199c123d44ad t5V9e                    2
 6 Question_3MwAFlmNO8EKrpY5zjUd 01558eef77a8d39b7103 t5V9e                    2
 7 Question_3MwAFlmNO8EKrpY5zjUd 016226278e6a69e10aa4 t5V9e                    2
 8 Question_3MwAFlmNO8EKrpY5zjUd 01a691413dc5897db83f t5V9e                    2
 9 Question_3MwAFlmNO8EKrpY5zjUd 01d8aa21ef476b66c573 t5V9e                    2
10 Question_3MwAFlmNO8EKrpY5zjUd 01qkq6w2v62cimidb3b7 t5V9e                    2
# ℹ 57,141 more rows
…
