Visual-Analytics-Fly-Like-a-G6 - Task 2: Learners Profile
…
print(title_cluster_percentage)

# A tibble: 74 × 4
# Groups:   title_ID [38]
   title_ID                      cluster count percentage
   <fct>                         <fct>   <int>      <dbl>
 1 Question_3MwAFlmNO8EKrpY5zjUd 1         148       67.3
 2 Question_3MwAFlmNO8EKrpY5zjUd 2          72       32.7
 3 Question_3oPyUzDmQtcMfLpGZ0jW 1          67       62.6
 4 Question_3oPyUzDmQtcMfLpGZ0jW 2          40       37.4
 5 Question_4nHcauCQ0Y6Pm8DgKlLo 1          15       65.2
 6 Question_4nHcauCQ0Y6Pm8DgKlLo 2           8       34.8
 7 Question_5fgqjSBwTPG7KUV3it6O 1          98       43.8
 8 Question_5fgqjSBwTPG7KUV3it6O 2         126       56.2
 9 Question_62XbhBvJ8NUSnApgDL94 1           6       46.2
10 Question_62XbhBvJ8NUSnApgDL94 2           7       53.8
# ℹ 64 more rows
